%!PS-Adobe-3.0 EPSF-3.0
%%Creator: cairo 1.16.0 (https://cairographics.org)
%%CreationDate: Sun Nov 29 22:25:18 2020
%%Pages: 1
%%DocumentData: Clean7Bit
%%LanguageLevel: 2
%%BoundingBox: 0 0 365 194
%%EndComments
%%BeginProlog
50 dict begin
/q { gsave } bind def
/Q { grestore } bind def
/cm { 6 array astore concat } bind def
/w { setlinewidth } bind def
/J { setlinecap } bind def
/j { setlinejoin } bind def
/M { setmiterlimit } bind def
/d { setdash } bind def
/m { moveto } bind def
/l { lineto } bind def
/c { curveto } bind def
/h { closepath } bind def
/re { exch dup neg 3 1 roll 5 3 roll moveto 0 rlineto
      0 exch rlineto 0 rlineto closepath } bind def
/S { stroke } bind def
/f { fill } bind def
/f* { eofill } bind def
/n { newpath } bind def
/W { clip } bind def
/W* { eoclip } bind def
/BT { } bind def
/ET { } bind def
/BDC { mark 3 1 roll /BDC pdfmark } bind def
/EMC { mark /EMC pdfmark } bind def
/cairo_store_point { /cairo_point_y exch def /cairo_point_x exch def } def
/Tj { show currentpoint cairo_store_point } bind def
/TJ {
  {
    dup
    type /stringtype eq
    { show } { -0.001 mul 0 cairo_font_matrix dtransform rmoveto } ifelse
  } forall
  currentpoint cairo_store_point
} bind def
/cairo_selectfont { cairo_font_matrix aload pop pop pop 0 0 6 array astore
    cairo_font exch selectfont cairo_point_x cairo_point_y moveto } bind def
/Tf { pop /cairo_font exch def /cairo_font_matrix where
      { pop cairo_selectfont } if } bind def
/Td { matrix translate cairo_font_matrix matrix concatmatrix dup
      /cairo_font_matrix exch def dup 4 get exch 5 get cairo_store_point
      /cairo_font where { pop cairo_selectfont } if } bind def
/Tm { 2 copy 8 2 roll 6 array astore /cairo_font_matrix exch def
      cairo_store_point /cairo_font where { pop cairo_selectfont } if } bind def
/g { setgray } bind def
/rg { setrgbcolor } bind def
/d1 { setcachedevice } bind def
/cairo_data_source {
  CairoDataIndex CairoData length lt
    { CairoData CairoDataIndex get /CairoDataIndex CairoDataIndex 1 add def }
    { () } ifelse
} def
/cairo_flush_ascii85_file { cairo_ascii85_file status { cairo_ascii85_file flushfile } if } def
/cairo_image { image cairo_flush_ascii85_file } def
/cairo_imagemask { imagemask cairo_flush_ascii85_file } def
%%EndProlog
%%BeginSetup
%%EndSetup
%%Page: 1 1
%%BeginPageSetup
%%PageBoundingBox: 0 0 365 194
%%EndPageSetup
q 0 0 365 194 rectclip
1 0 0 -1 0 194 cm q
0.403922 0.658824 1 rg
131.09 165.16 m 131.09 180.223 118.879 192.434 103.816 192.434 c 88.754
 192.434 76.543 180.223 76.543 165.16 c 76.543 150.098 88.754 137.887 103.816
 137.887 c 118.879 137.887 131.09 150.098 131.09 165.16 c h
131.09 165.16 m f
0.0470588 0 1 rg
3 w
0 J
0 j
[] 0.0 d
4 M q 1 0 0 1 0 0 cm
131.09 165.16 m 131.09 180.223 118.879 192.434 103.816 192.434 c 88.754
 192.434 76.543 180.223 76.543 165.16 c 76.543 150.098 88.754 137.887 103.816
 137.887 c 118.879 137.887 131.09 150.098 131.09 165.16 c h
131.09 165.16 m S Q
0.403922 0.658824 1 rg
308.375 164.781 m 308.375 179.637 296.332 191.676 281.477 191.676 c 266.625
 191.676 254.582 179.637 254.582 164.781 c 254.582 149.93 266.625 137.887
 281.477 137.887 c 296.332 137.887 308.375 149.93 308.375 164.781 c h
308.375 164.781 m f
0.0470588 0 1 rg
q 1 0 0 1 0 0 cm
308.375 164.781 m 308.375 179.637 296.332 191.676 281.477 191.676 c 266.625
 191.676 254.582 179.637 254.582 164.781 c 254.582 149.93 266.625 137.887
 281.477 137.887 c 296.332 137.887 308.375 149.93 308.375 164.781 c h
308.375 164.781 m S Q
0.929412 0 0 rg
73.512 99.25 m 1.539 124.25 l 3.055 165.918 l 67.453 168.949 l 70.449 137.344
 77.359 130.09 103.059 129.555 c 128.762 129.016 142.41 146.109 139.426 
168.949 c 243.219 171.223 l 241.875 148.785 251.199 132.02 274.281 126.523
 c 309.371 122.762 319.992 143.668 320.496 170.465 c 362.922 170.465 l 352.316
 89.398 l 283.371 1.516 l 112.152 5.305 l h
73.512 99.25 m f
0 g
q 1 0 0 1 0 0 cm
73.512 99.25 m 1.539 124.25 l 3.055 165.918 l 67.453 168.949 l 70.449 137.344
 77.359 130.09 103.059 129.555 c 128.762 129.016 142.41 146.109 139.426 
168.949 c 243.219 171.223 l 241.875 148.785 251.199 132.02 274.281 126.523
 c 309.371 122.762 319.992 143.668 320.496 170.465 c 362.922 170.465 l 352.316
 89.398 l 283.371 1.516 l 112.152 5.305 l h
73.512 99.25 m S Q
1 g
126.547 25.004 m 102.301 90.914 l 185.641 89.398 l 186.398 25.004 l h
126.547 25.004 m f
0 g
q 1 0 0 1 0 0 cm
126.547 25.004 m 102.301 90.914 l 185.641 89.398 l 186.398 25.004 l h
126.547 25.004 m S Q
1 0.968627 0.968627 rg
210.641 28.031 m 212.156 84.098 l 286.402 86.367 l 264.43 26.516 l h
210.641 28.031 m f
0 g
q 1 0 0 1 0 0 cm
210.641 28.031 m 212.156 84.098 l 286.402 86.367 l 264.43 26.516 l h
210.641 28.031 m S Q
Q Q
showpage
%%Trailer
end
%%EOF
