%!PS-Adobe-3.0 EPSF-3.0
%%Creator: cairo 1.16.0 (https://cairographics.org)
%%CreationDate: Sun Nov 29 22:25:18 2020
%%Pages: 1
%%DocumentData: Clean7Bit
%%LanguageLevel: 2
%%BoundingBox: 0 0 223 270
%%EndComments
%%BeginProlog
50 dict begin
/q { gsave } bind def
/Q { grestore } bind def
/cm { 6 array astore concat } bind def
/w { setlinewidth } bind def
/J { setlinecap } bind def
/j { setlinejoin } bind def
/M { setmiterlimit } bind def
/d { setdash } bind def
/m { moveto } bind def
/l { lineto } bind def
/c { curveto } bind def
/h { closepath } bind def
/re { exch dup neg 3 1 roll 5 3 roll moveto 0 rlineto
      0 exch rlineto 0 rlineto closepath } bind def
/S { stroke } bind def
/f { fill } bind def
/f* { eofill } bind def
/n { newpath } bind def
/W { clip } bind def
/W* { eoclip } bind def
/BT { } bind def
/ET { } bind def
/BDC { mark 3 1 roll /BDC pdfmark } bind def
/EMC { mark /EMC pdfmark } bind def
/cairo_store_point { /cairo_point_y exch def /cairo_point_x exch def } def
/Tj { show currentpoint cairo_store_point } bind def
/TJ {
  {
    dup
    type /stringtype eq
    { show } { -0.001 mul 0 cairo_font_matrix dtransform rmoveto } ifelse
  } forall
  currentpoint cairo_store_point
} bind def
/cairo_selectfont { cairo_font_matrix aload pop pop pop 0 0 6 array astore
    cairo_font exch selectfont cairo_point_x cairo_point_y moveto } bind def
/Tf { pop /cairo_font exch def /cairo_font_matrix where
      { pop cairo_selectfont } if } bind def
/Td { matrix translate cairo_font_matrix matrix concatmatrix dup
      /cairo_font_matrix exch def dup 4 get exch 5 get cairo_store_point
      /cairo_font where { pop cairo_selectfont } if } bind def
/Tm { 2 copy 8 2 roll 6 array astore /cairo_font_matrix exch def
      cairo_store_point /cairo_font where { pop cairo_selectfont } if } bind def
/g { setgray } bind def
/rg { setrgbcolor } bind def
/d1 { setcachedevice } bind def
/cairo_data_source {
  CairoDataIndex CairoData length lt
    { CairoData CairoDataIndex get /CairoDataIndex CairoDataIndex 1 add def }
    { () } ifelse
} def
/cairo_flush_ascii85_file { cairo_ascii85_file status { cairo_ascii85_file flushfile } if } def
/cairo_image { image cairo_flush_ascii85_file } def
/cairo_imagemask { imagemask cairo_flush_ascii85_file } def
%%EndProlog
%%BeginSetup
%%EndSetup
%%Page: 1 1
%%BeginPageSetup
%%PageBoundingBox: 0 0 223 270
%%EndPageSetup
q 0 0 223 270 rectclip
1 0 0 -1 0 270 cm q
0.2 0.556863 0.231373 rg
10.191 37.785 m 126.863 174.156 l 126.863 174.156 158.336 155.711 174.594
 155.215 c 190.852 154.719 210.102 155.344 218.535 169.609 c 226.973 183.875
 219.793 210.613 208.688 221.887 c 197.582 233.156 181.082 235.406 167.777
 230.219 c 154.469 225.031 142.016 194.609 142.016 194.609 c 142.016 194.609
 28.195 158.617 8.676 126.426 c -10.84 94.234 10.191 37.785 10.191 37.785
 c h
10.191 37.785 m f
0 g
0.75 w
0 J
0 j
[] 0.0 d
4 M q 1 0 0 1 0 0 cm
10.191 37.785 m 126.863 174.156 l 126.863 174.156 158.336 155.711 174.594
 155.215 c 190.852 154.719 210.102 155.344 218.535 169.609 c 226.973 183.875
 219.793 210.613 208.688 221.887 c 197.582 233.156 181.082 235.406 167.777
 230.219 c 154.469 225.031 142.016 194.609 142.016 194.609 c 142.016 194.609
 28.195 158.617 8.676 126.426 c -10.84 94.234 10.191 37.785 10.191 37.785
 c h
10.191 37.785 m S Q
1 g
148.836 183.246 m 148.836 183.246 170.02 218.594 183.688 217.34 c 197.352
 216.086 206.02 199.586 204.898 189.309 c 203.777 179.031 195.121 173.715
 184.445 171.883 c 173.766 170.051 148.836 183.246 148.836 183.246 c h
148.836 183.246 m f
0 g
q 1 0 0 1 0 0 cm
148.836 183.246 m 148.836 183.246 170.02 218.594 183.688 217.34 c 197.352
 216.086 206.02 199.586 204.898 189.309 c 203.777 179.031 195.121 173.715
 184.445 171.883 c 173.766 170.051 148.836 183.246 148.836 183.246 c h
148.836 183.246 m S Q
0.2 0.556863 0.231373 rg
116.441 0.648 m 110.461 180.02 l 110.461 180.02 74.359 185.266 61.352 195.027
 c 48.344 204.793 33.699 217.301 36.02 233.711 c 38.336 250.121 60.641 266.523
 76.352 268.391 c 92.066 270.262 106.355 261.719 113.512 249.355 c 120.664
 236.992 111.398 205.457 111.398 205.457 c 111.398 205.457 177.828 106.27
 172.973 68.938 c 168.117 31.609 116.441 0.648 116.441 0.648 c h
116.441 0.648 m f
0 g
0.585818 w
q -1 0.799419 0.799419 1 0 0 cm
-70.725 57.187 m 20.408 163.705 l 20.408 163.705 44.992 149.298 57.689 
148.909 c 70.388 148.523 85.423 149.012 92.012 160.155 c 98.602 171.297 
92.994 192.183 84.319 200.984 c 75.644 209.79 62.76 211.548 52.364 207.495
 c 41.97 203.441 32.243 179.682 32.243 179.682 c 32.243 179.682 -56.663 
151.567 -71.908 126.422 c -87.152 101.28 -70.725 57.187 -70.725 57.187 c
 h
-70.725 57.187 m S Q
1 g
98.977 200.84 m 98.977 200.84 104.5 241.676 93.043 249.23 c 81.586 256.785
 64.512 249.309 58.969 240.582 c 53.43 231.852 56.871 222.297 64.066 214.195
 c 71.262 206.098 98.977 200.84 98.977 200.84 c h
98.977 200.84 m f
0 g
q -1 0.799419 0.799419 1 0 0 cm
37.569 170.806 m 37.569 170.806 54.116 198.414 64.791 197.436 c 75.465 
196.457 82.236 183.568 81.361 175.54 c 80.483 167.512 73.723 163.361 65.382
 161.928 c 57.042 160.497 37.569 170.806 37.569 170.806 c h
37.569 170.806 m S Q
Q Q
showpage
%%Trailer
end
%%EOF
